Ridging and Roping
…
library(gbm)

## Warning: package 'gbm' was built under R version 4.1.2

## Loaded gbm 2.1.8

5. Load and view the data

Mills_data_441 <- read_excel("G:/Shared drives/Business Improvement/Projects/441 R&R project/Data/Millsred441QC.xlsx")

Mills_data_441

## # A tibble: 437 x 19
##    Product_No AP1_Temp_group Roping TotRed WaflowZone1_S WaflowZone1_I_O
##         <dbl> <chr>          <chr>   <dbl>         <dbl>           <dbl>
##  1    4348613 1010           YES     0.599          89.0            435.
##  2    4348622 1010           YES     0.487          89.0            435 
##  3    4348664 1010           NO      0.647          89.0            435.
##  4    4348574 1010           NO      0.504          89.0            435.
##  5    4348563 1010           YES     0.622          89.0            435.
##  6    4348564 1010           NO      0.671          89.0            435.
##  7    4348593 1010           NO      0.622          89.0            435.
##  8    4348591 1010           NO      0.573          72.0            329.
##  9    4348673 1010           NO      0.679          89.0            435.
## 10    4348584 1010           YES     0.513          89              435.
## # ... with 427 more rows, and 13 more variables: WaflowZone2_I_O <dbl>,
## #   WaflowZone3_I_O <dbl>, WaflowZone4_I <dbl>, WaflowZone4_O <dbl>,
## #   WaflowZone5_I <dbl>, WaflowZone5_O <dbl>, WaflowZone6_I <dbl>,
## #   WaflowZone7_I <dbl>, WF_Sum <dbl>, SUM_Wet <dbl>, Flow <dbl>, SWF <dbl>,
## #   Cooling_system <chr>

5.1 Cleaning the data

Take out unnecessary columns

Mills_data_441%>%
  select(-c(Product_No, SUM_Wet, SWF,WF_Sum,AP1_Temp_group))%>%
  purrr::discard(~sum(is.na(.x))/length(.x)* 100 >=50)%>%
  drop_na()->
  Mills_data_441
Mills_data_441

## # A tibble: 428 x 14
##    Roping TotRed WaflowZone1_S WaflowZone1_I_O WaflowZone2_I_O WaflowZone3_I_O
##    <chr>   <dbl>         <dbl>           <dbl>           <dbl>           <dbl>
##  1 YES     0.599          89.0            435.            474.            248.
##  2 YES     0.487          89.0            435             495.            248.
##  3 NO      0.647          89.0            435.            487.            245.
##  4 NO      0.504          89.0            435.            460.            244.
##  5 YES     0.622          89.0            435.            490.            246.
##  6 NO      0.671          89.0            435.            471.            237.
##  7 NO      0.622          89.0            435.            481.            244.
##  8 NO      0.573          72.0            329.            372.            183.
##  9 NO      0.679          89.0            435.            494.            252.
## 10 YES     0.513          89              435.            470.            241.
## # ... with 418 more rows, and 8 more variables: WaflowZone4_I <dbl>,
## #   WaflowZone4_O <dbl>, WaflowZone5_I <dbl>, WaflowZone5_O <dbl>,
## #   WaflowZone6_I <dbl>, WaflowZone7_I <dbl>, Flow <dbl>, Cooling_system <chr>

Mills_data_441<-group_by(Mills_data_441,Roping)%>%sample_n(194)
table(Mills_data_441$Roping)

## 
##  NO YES 
## 194 194

Mills_data_441

## # A tibble: 388 x 14
## # Groups:   Roping [2]
##    Roping TotRed WaflowZone1_S WaflowZone1_I_O WaflowZone2_I_O WaflowZone3_I_O
##    <chr>   <dbl>         <dbl>           <dbl>           <dbl>           <dbl>
##  1 NO      0.765          86.5            418.            458.            234.
##  2 NO      0.599          89.0            435.            474.            248.
##  3 NO      0.571          63.8            286.            328.            196.
##  4 NO      0.677          89.0            435.            489.            248.
##  5 NO      0.650          67.8            312.            358.            194.
##  6 NO      0.679          55.4            233.            339.            198.
##  7 NO      0.579          89.0            435.            462.            240.
##  8 NO      0.608          95.0            466.            480.            256.
##  9 NO      0.676          89.0            435.            455.            243.
## 10 NO      0.695          89.0            435.            464.            248.
## # ... with 378 more rows, and 8 more variables: WaflowZone4_I <dbl>,
## #   WaflowZone4_O <dbl>, WaflowZone5_I <dbl>, WaflowZone5_O <dbl>,
## #   WaflowZone6_I <dbl>, WaflowZone7_I <dbl>, Flow <dbl>, Cooling_system <chr>
…
